…
# print result						  
print(my.tab)
```

```
## Source: local data frame [2,355 x 7]
## Groups: ticker [?]
## 
##    ticker  week.day mean.price max.price min.price
##     <chr>     <chr>      <dbl>     <dbl>     <dbl>
## 1       A    Friday   33.02034  47.88207 18.370543
## 2       A    Monday   33.11657  48.18046 18.458895
## 3       A  Thursday   33.03899  47.87212 18.696768
## 4       A   Tuesday   33.05971  48.02132 18.329764
## 5       A Wednesday   33.03401  48.17052 18.744342
## 6     AAL    Friday   23.30720  54.66265  3.913153
## 7     AAL    Monday   23.63982  54.24885  4.137040
## 8     AAL  Thursday   23.27089  54.38582  4.283053
## 9     AAL   Tuesday   23.48269  52.86867  3.942356
## 10    AAL Wednesday   23.43472  53.06473  3.893684
## # ... with 2,345 more rows, and 2 more variables:
## #   max.ret <dbl>, min.ret <dbl>
```
…
