Processing and Analyzing Financial Data with R
…
# group data and calculate stats
my.tab <- my.df %>%
          group_by(ticker) %>%
          summarise(mean.price = mean(price.adjusted), 
                    max.price = max(price.adjusted), 
                    min.price = min(price.adjusted),
                    max.ret = max(ret),
                    min.ret = min(ret))

# print result                        
print(my.tab)

## # A tibble: 471 × 6
##    ticker mean.price max.price min.price    max.ret
##     <chr>      <dbl>     <dbl>     <dbl>      <dbl>
## 1       A   33.05298  48.18046 18.329764 0.11763059
## 2     AAL   23.42431  54.66265  3.893684 0.17316703
## 3     AAP  103.23486 199.99451 38.418693 0.16557581
## 4    AAPL   75.02859 127.96609 24.881912 0.08874137
## 5     ABC   58.40506 112.10088 23.307129 0.09532090
## 6     ABT   32.12158  49.33589 18.430625 0.06496596
## 7     ACN   70.61981 125.40000 31.589890 0.07989349
## 8    ADBE   55.25822 110.81000 22.690001 0.12780138
## 9     ADI   42.36350  73.90623 21.600676 0.10146155
## 10    ADM   33.77152  50.48857 20.866785 0.07298599
## # ... with 461 more rows, and 1 more variables:
## #   min.ret <dbl>
…
Now, we proceed by adding column week.day in group_by.

# group by ticker and weekday, calculate stats
my.tab <- my.df %>%
          group_by(ticker, week.day) %>%
          summarise(mean.price = mean(price.adjusted), 
                    max.price = max(price.adjusted), 
                    min.price = min(price.adjusted),
                    max.ret = max(ret),
                    min.ret = min(ret))

# print result                        
print(my.tab)

## Source: local data frame [2,355 x 7]
## Groups: ticker [?]
## 
##    ticker  week.day mean.price max.price min.price
##     <chr>     <chr>      <dbl>     <dbl>     <dbl>
## 1       A    Friday   33.02034  47.88207 18.370543
## 2       A    Monday   33.11657  48.18046 18.458895
## 3       A  Thursday   33.03899  47.87212 18.696768
## 4       A   Tuesday   33.05971  48.02132 18.329764
## 5       A Wednesday   33.03401  48.17052 18.744342
## 6     AAL    Friday   23.30720  54.66265  3.913153
## 7     AAL    Monday   23.63982  54.24885  4.137040
## 8     AAL  Thursday   23.27089  54.38582  4.283053
## 9     AAL   Tuesday   23.48269  52.86867  3.942356
## 10    AAL Wednesday   23.43472  53.06473  3.893684
## # ... with 2,345 more rows, and 2 more variables:
## #   max.ret <dbl>, min.ret <dbl>
…
